Tools for eye data analysis • eyetools
…
and then load it:

library(eyetools)

The format of raw data

Data needs to be in a particular format to be compatible with the functions in eyetools. This format is 4 columns of data, with each row representing a sample. The four columns are: time, x, y, and trial. You can see an example with the built in data sets:

example_raw_sac

## # A tibble: 32,608 x 4
##     time     x     y trial
##    <dbl> <dbl> <dbl> <dbl>
##  1     0  940.  535.     1
##  2     3  940.  536.     1
##  3     7  936.  533.     1
##  4    10  939.  536.     1
##  5    13  944.  533.     1
##  6    17  939.  535.     1
##  7    20  938.  531.     1
##  8    23  939.  536.     1
##  9    27  940.  534.     1
## 10    30  942.  537.     1
## # ... with 32,598 more rows

Importantly, the data for each trial should be sequential and logical, that is, the timestamps should run continuously, without any gaps in the recording process. The eyetools package expects data to contain only data for a single participant; none of the functions handle the data for multiple participants in their present state.

Repairing data

Raw data will often contain missing samples, which we can attempt to repair. eyetools has an interpolation() function you can use to do this. It will produce a report of how successful the repair was in terms of the missing data before and after interpolation:

eyetools::interpolate(example_raw_sac, report = TRUE)

## [[1]]
## # A tibble: 32,608 x 4
##     time     x     y trial
##    <dbl> <dbl> <dbl> <dbl>
##  1     0  940.  535.     1
##  2     3  940.  536.     1
##  3     7  936.  533.     1
##  4    10  939.  536.     1
##  5    13  944.  533.     1
##  6    17  939.  535.     1
##  7    20  938.  531.     1
##  8    23  939.  536.     1
##  9    27  940.  534.     1
## 10    30  942.  537.     1
## # ... with 32,598 more rows
## 
## [[2]]
…
